ISO-10303-21;
HEADER;
FILE_DESCRIPTION (( 'STEP AP203' ),
    '1' );
FILE_NAME ('SP_centering_ring_v0_1.STEP',
    '2022-02-12T13:47:57',
    ( '' ),
    ( '' ),
    'SwSTEP 2.0',
    'SolidWorks 2020',
    '' );
FILE_SCHEMA (( 'CONFIG_CONTROL_DESIGN' ));
ENDSEC;

DATA;
#1 = PERSON_AND_ORGANIZATION ( #295, #81 ) ;
#2 = CARTESIAN_POINT ( 'NONE',  ( 0.000000000000000000, 0.000000000000000000, 2.599999999999999201 ) ) ;
#3 =( GEOMETRIC_REPRESENTATION_CONTEXT ( 3 ) GLOBAL_UNCERTAINTY_ASSIGNED_CONTEXT ( ( #93 ) ) GLOBAL_UNIT_ASSIGNED_CONTEXT ( ( #171, #190, #147 ) ) REPRESENTATION_CONTEXT ( 'NONE', 'WORKASPACE' ) );
#4 = DIRECTION ( 'NONE',  ( -0.000000000000000000, -0.000000000000000000, 1.000000000000000000 ) ) ;
#5 = DIRECTION ( 'NONE',  ( 0.000000000000000000, -0.000000000000000000, 1.000000000000000000 ) ) ;
#6 = PRODUCT_DEFINITION_SHAPE ( 'NONE', 'NONE',  #34 ) ;
#7 = DATE_AND_TIME ( #124, #232 ) ;
#8 = ORIENTED_EDGE ( 'NONE', *, *, #39, .F. ) ;
#9 = EDGE_CURVE ( 'NONE', #193, #64, #209, .T. ) ;
#10 = PERSON_AND_ORGANIZATION_ROLE ( 'design_owner' ) ;
#11 = CIRCLE ( 'NONE', #143, 9.999999999999998224 ) ;
#12 = DIRECTION ( 'NONE',  ( 1.000000000000000000, 0.000000000000000000, 0.000000000000000000 ) ) ;
#13 = CIRCLE ( 'NONE', #199, 16.25000000000000000 ) ;
#14 = VERTEX_POINT ( 'NONE', #263 ) ;
#15 = PRODUCT_RELATED_PRODUCT_CATEGORY ( 'detail', '', ( #255 ) ) ;
#16 = EDGE_CURVE ( 'NONE', #69, #246, #56, .T. ) ;
#17 = ORIENTED_EDGE ( 'NONE', *, *, #154, .F. ) ;
#18 = PERSON_AND_ORGANIZATION_ROLE ( 'classification_officer' ) ;
#19 = CIRCLE ( 'NONE', #105, 10.00000000000000000 ) ;
#20 = DATE_AND_TIME ( #65, #32 ) ;
#21 = CARTESIAN_POINT ( 'NONE',  ( 0.000000000000000000, 9.999999999999998224, 2.599999999999999201 ) ) ;
#22 = CALENDAR_DATE ( 2022, 12, 2 ) ;
#23 = CARTESIAN_POINT ( 'NONE',  ( 16.25000000000000000, 2.020667218593133100E-15, 2.599999999999999201 ) ) ;
#24 = ORIENTED_EDGE ( 'NONE', *, *, #9, .F. ) ;
#25 = FACE_OUTER_BOUND ( 'NONE', #166, .T. ) ;
#26 = ORIENTED_EDGE ( 'NONE', *, *, #240, .F. ) ;
#27 = AXIS2_PLACEMENT_3D ( 'NONE', #48, #4, #91 ) ;
#28 = DIRECTION ( 'NONE',  ( -0.000000000000000000, -0.000000000000000000, 1.000000000000000000 ) ) ;
#29 = DIRECTION ( 'NONE',  ( -0.000000000000000000, -0.000000000000000000, 1.000000000000000000 ) ) ;
#30 = APPROVAL_DATE_TIME ( #123, #144 ) ;
#31 = CONICAL_SURFACE ( 'NONE', #180, 16.75000000000000000, 0.4636476090008068707 ) ;
#32 = LOCAL_TIME ( 14, 47, 57.00000000000000000, #114 ) ;
#33 = CARTESIAN_POINT ( 'NONE',  ( 0.000000000000000000, 0.000000000000000000, 1.600000000000000089 ) ) ;
#34 = PRODUCT_DEFINITION ( 'UNKNOWN', '', #35, #274 ) ;
#35 = PRODUCT_DEFINITION_FORMATION_WITH_SPECIFIED_SOURCE ( 'ANY', '', #255, .NOT_KNOWN. ) ;
#36 = ORIENTED_EDGE ( 'NONE', *, *, #206, .T. ) ;
#37 = DIRECTION ( 'NONE',  ( 0.000000000000000000, 0.000000000000000000, 1.000000000000000000 ) ) ;
#38 = PERSON_AND_ORGANIZATION ( #295, #81 ) ;
#39 = EDGE_CURVE ( 'NONE', #74, #246, #11, .T. ) ;
#40 = DIRECTION ( 'NONE',  ( -0.000000000000000000, -0.000000000000000000, 1.000000000000000000 ) ) ;
#41 = ORIENTED_EDGE ( 'NONE', *, *, #89, .F. ) ;
#42 = CALENDAR_DATE ( 2022, 12, 2 ) ;
#43 = DATE_AND_TIME ( #42, #113 ) ;
#44 = ADVANCED_BREP_SHAPE_REPRESENTATION ( 'SP_centering_ring_v0_1', ( #270, #204 ), #3 ) ;
#45 = CARTESIAN_POINT ( 'NONE',  ( -9.999999999999998224, 1.224646799147353059E-15, 2.729999999999999094 ) ) ;
#46 = VECTOR ( 'NONE', #172, 1000.000000000000000 ) ;
#47 = DIRECTION ( 'NONE',  ( 1.000000000000000000, 0.000000000000000000, 0.000000000000000000 ) ) ;
#48 = CARTESIAN_POINT ( 'NONE',  ( 0.000000000000000000, 0.000000000000000000, 2.729999999999999094 ) ) ;
#49 = FACE_OUTER_BOUND ( 'NONE', #150, .T. ) ;
#50 = CIRCLE ( 'NONE', #62, 16.75000000000000000 ) ;
#51 = CARTESIAN_POINT ( 'NONE',  ( -16.25000000000000000, 0.000000000000000000, 2.599999999999999201 ) ) ;
#52 = LINE ( 'NONE', #262, #186 ) ;
#53 = FACE_OUTER_BOUND ( 'NONE', #57, .T. ) ;
#54 = DIRECTION ( 'NONE',  ( 1.000000000000000000, 0.000000000000000000, 0.000000000000000000 ) ) ;
#55 = ORIENTED_EDGE ( 'NONE', *, *, #217, .T. ) ;
#56 = LINE ( 'NONE', #137, #247 ) ;
#57 = EDGE_LOOP ( 'NONE', ( #99, #41, #136, #168 ) ) ;
#58 = ORIENTED_EDGE ( 'NONE', *, *, #16, .T. ) ;
#59 = CONICAL_SURFACE ( 'NONE', #264, 16.75000000000000000, 0.4636476090008068707 ) ;
#60 = ORIENTED_EDGE ( 'NONE', *, *, #39, .T. ) ;
#61 = APPROVAL_STATUS ( 'not_yet_approved' ) ;
#62 = AXIS2_PLACEMENT_3D ( 'NONE', #33, #259, #80 ) ;
#63 = FACE_OUTER_BOUND ( 'NONE', #258, .T. ) ;
#64 = VERTEX_POINT ( 'NONE', #85 ) ;
#65 = CALENDAR_DATE ( 2022, 12, 2 ) ;
#66 = DIRECTION ( 'NONE',  ( 0.000000000000000000, 0.000000000000000000, -1.000000000000000000 ) ) ;
#67 = CLOSED_SHELL ( 'NONE', ( #71, #195, #87, #196, #287, #174, #286, #145 ) ) ;
#68 = DIRECTION ( 'NONE',  ( -1.000000000000000000, 0.000000000000000000, -0.000000000000000000 ) ) ;
#69 = VERTEX_POINT ( 'NONE', #159 ) ;
#70 = CC_DESIGN_PERSON_AND_ORGANIZATION_ASSIGNMENT ( #38, #18, ( #86 ) ) ;
#71 = ADVANCED_FACE ( 'NONE', ( #63 ), #251, .T. ) ;
#72 = ORIENTED_EDGE ( 'NONE', *, *, #208, .F. ) ;
#73 = DIRECTION ( 'NONE',  ( 1.000000000000000000, 0.000000000000000000, 0.000000000000000000 ) ) ;
#74 = VERTEX_POINT ( 'NONE', #245 ) ;
#75 = FACE_OUTER_BOUND ( 'NONE', #280, .T. ) ;
#76 = CC_DESIGN_DATE_AND_TIME_ASSIGNMENT ( #43, #276, ( #86 ) ) ;
#77 = CARTESIAN_POINT ( 'NONE',  ( 0.000000000000000000, 0.000000000000000000, -8.673617379884035472E-16 ) ) ;
#78 = CARTESIAN_POINT ( 'NONE',  ( 0.000000000000000000, 0.000000000000000000, 0.000000000000000000 ) ) ;
#79 = DIRECTION ( 'NONE',  ( -0.000000000000000000, -0.000000000000000000, 1.000000000000000000 ) ) ;
#80 = DIRECTION ( 'NONE',  ( 1.000000000000000000, 0.000000000000000000, 0.000000000000000000 ) ) ;
#81 = ORGANIZATION ( 'UNSPECIFIED', 'UNSPECIFIED', '' ) ;
#82 = PERSON_AND_ORGANIZATION ( #295, #81 ) ;
#83 = CARTESIAN_POINT ( 'NONE',  ( -16.75000000000000000, 0.000000000000000000, 1.600000000000000089 ) ) ;
#84 = ORIENTED_EDGE ( 'NONE', *, *, #100, .T. ) ;
#85 = CARTESIAN_POINT ( 'NONE',  ( -16.75000000000000000, 0.000000000000000000, 1.600000000000000089 ) ) ;
#86 = SECURITY_CLASSIFICATION ( '', '', #226 ) ;
#87 = ADVANCED_FACE ( 'NONE', ( #135 ), #279, .F. ) ;
#88 = ORIENTED_EDGE ( 'NONE', *, *, #298, .T. ) ;
#89 = EDGE_CURVE ( 'NONE', #193, #182, #13, .T. ) ;
#90 = APPLICATION_CONTEXT ( 'configuration controlled 3d designs of mechanical parts and assemblies' ) ;
#91 = DIRECTION ( 'NONE',  ( 1.000000000000000000, 0.000000000000000000, 0.000000000000000000 ) ) ;
#92 = APPROVAL_ROLE ( '' ) ;
#93 = UNCERTAINTY_MEASURE_WITH_UNIT (LENGTH_MEASURE( 1.000000000000000082E-05 ), #171, 'distance_accuracy_value', 'NONE');
#94 = DIRECTION ( 'NONE',  ( -0.000000000000000000, -0.000000000000000000, 1.000000000000000000 ) ) ;
#95 = ORIENTED_EDGE ( 'NONE', *, *, #117, .F. ) ;
#96 = SHAPE_DEFINITION_REPRESENTATION ( #6, #44 ) ;
#97 = DIRECTION ( 'NONE',  ( -1.000000000000000000, 0.000000000000000000, 0.000000000000000000 ) ) ;
#98 = CC_DESIGN_PERSON_AND_ORGANIZATION_ASSIGNMENT ( #212, #167, ( #34 ) ) ;
#99 = ORIENTED_EDGE ( 'NONE', *, *, #100, .F. ) ;
#100 = EDGE_CURVE ( 'NONE', #182, #222, #156, .T. ) ;
#101 = AXIS2_PLACEMENT_3D ( 'NONE', #201, #94, #169 ) ;
#102 = CARTESIAN_POINT ( 'NONE',  ( 16.75000000000000000, 2.051283388571816887E-15, 1.600000000000000089 ) ) ;
#103 = CARTESIAN_POINT ( 'NONE',  ( 0.000000000000000000, 0.000000000000000000, -8.673617379884035472E-16 ) ) ;
#104 = APPROVAL ( #223, 'UNSPECIFIED' ) ;
#105 = AXIS2_PLACEMENT_3D ( 'NONE', #77, #283, #12 ) ;
#106 = DATE_TIME_ROLE ( 'creation_date' ) ;
#107 = MECHANICAL_CONTEXT ( 'NONE', #233, 'mechanical' ) ;
#108 = COORDINATED_UNIVERSAL_TIME_OFFSET ( 1, 0, .AHEAD. ) ;
#109 = CC_DESIGN_APPROVAL ( #104, ( #35 ) ) ;
#110 = CC_DESIGN_PERSON_AND_ORGANIZATION_ASSIGNMENT ( #1, #198, ( #35 ) ) ;
#111 = CARTESIAN_POINT ( 'NONE',  ( 0.000000000000000000, 0.000000000000000000, 0.000000000000000000 ) ) ;
#112 = CIRCLE ( 'NONE', #292, 10.00000000000000000 ) ;
#113 = LOCAL_TIME ( 14, 47, 57.00000000000000000, #244 ) ;
#114 = COORDINATED_UNIVERSAL_TIME_OFFSET ( 1, 0, .AHEAD. ) ;
#115 = ORIENTED_EDGE ( 'NONE', *, *, #217, .F. ) ;
#116 = DIRECTION ( 'NONE',  ( 1.000000000000000000, 0.000000000000000000, 0.000000000000000000 ) ) ;
#117 = EDGE_CURVE ( 'NONE', #228, #74, #271, .T. ) ;
#118 = CYLINDRICAL_SURFACE ( 'NONE', #267, 16.75000000000000000 ) ;
#119 = CARTESIAN_POINT ( 'NONE',  ( 0.000000000000000000, 0.000000000000000000, 2.729999999999999094 ) ) ;
#120 = LOCAL_TIME ( 14, 47, 57.00000000000000000, #151 ) ;
#121 = ORIENTED_EDGE ( 'NONE', *, *, #208, .T. ) ;
#122 = LINE ( 'NONE', #234, #176 ) ;
#123 = DATE_AND_TIME ( #241, #120 ) ;
#124 = CALENDAR_DATE ( 2022, 12, 2 ) ;
#125 = AXIS2_PLACEMENT_3D ( 'NONE', #2, #181, #47 ) ;
#126 = CC_DESIGN_APPROVAL ( #128, ( #86 ) ) ;
#127 = DIRECTION ( 'NONE',  ( -0.000000000000000000, -0.000000000000000000, 1.000000000000000000 ) ) ;
#128 = APPROVAL ( #297, 'UNSPECIFIED' ) ;
#129 = CC_DESIGN_PERSON_AND_ORGANIZATION_ASSIGNMENT ( #173, #10, ( #255 ) ) ;
#130 = CARTESIAN_POINT ( 'NONE',  ( 0.000000000000000000, 0.000000000000000000, 2.729999999999999094 ) ) ;
#131 = AXIS2_PLACEMENT_3D ( 'NONE', #278, #28, #179 ) ;
#132 = ORIENTED_EDGE ( 'NONE', *, *, #154, .T. ) ;
#133 = ORIENTED_EDGE ( 'NONE', *, *, #261, .T. ) ;
#134 = CARTESIAN_POINT ( 'NONE',  ( 0.000000000000000000, 0.000000000000000000, 2.599999999999999201 ) ) ;
#135 = FACE_OUTER_BOUND ( 'NONE', #291, .T. ) ;
#136 = ORIENTED_EDGE ( 'NONE', *, *, #9, .T. ) ;
#137 = CARTESIAN_POINT ( 'NONE',  ( 9.999999999999998224, 0.000000000000000000, 2.729999999999999094 ) ) ;
#138 = DIRECTION ( 'NONE',  ( 1.000000000000000000, 0.000000000000000000, 0.000000000000000000 ) ) ;
#139 = DIRECTION ( 'NONE',  ( 0.000000000000000000, 0.000000000000000000, -1.000000000000000000 ) ) ;
#140 = FACE_OUTER_BOUND ( 'NONE', #161, .T. ) ;
#141 = APPLICATION_PROTOCOL_DEFINITION ( 'international standard', 'config_control_design', 1994, #90 ) ;
#142 = EDGE_LOOP ( 'NONE', ( #95, #26, #58, #36 ) ) ;
#143 = AXIS2_PLACEMENT_3D ( 'NONE', #163, #79, #155 ) ;
#144 = APPROVAL ( #61, 'UNSPECIFIED' ) ;
#145 = ADVANCED_FACE ( 'NONE', ( #25 ), #118, .T. ) ;
#146 = CARTESIAN_POINT ( 'NONE',  ( 9.999999999999998224, 0.000000000000000000, 2.599999999999999201 ) ) ;
#147 =( NAMED_UNIT ( * ) SI_UNIT ( $, .STERADIAN. ) SOLID_ANGLE_UNIT ( ) );
#148 = AXIS2_PLACEMENT_3D ( 'NONE', #254, #29, #116 ) ;
#149 = APPROVAL_PERSON_ORGANIZATION ( #285, #104, #175 ) ;
#150 = EDGE_LOOP ( 'NONE', ( #265, #132 ) ) ;
#151 = COORDINATED_UNIVERSAL_TIME_OFFSET ( 1, 0, .AHEAD. ) ;
#152 = PERSON_AND_ORGANIZATION ( #295, #81 ) ;
#153 = CC_DESIGN_APPROVAL ( #144, ( #34 ) ) ;
#154 = EDGE_CURVE ( 'NONE', #182, #193, #237, .T. ) ;
#155 = DIRECTION ( 'NONE',  ( 1.000000000000000000, 0.000000000000000000, 0.000000000000000000 ) ) ;
#156 = LINE ( 'NONE', #102, #170 ) ;
#157 = DIRECTION ( 'NONE',  ( -0.000000000000000000, -0.000000000000000000, 1.000000000000000000 ) ) ;
#158 = EDGE_LOOP ( 'NONE', ( #272, #8 ) ) ;
#159 = CARTESIAN_POINT ( 'NONE',  ( 10.00000000000000000, 0.000000000000000000, -8.673617379884035472E-16 ) ) ;
#160 = VERTEX_POINT ( 'NONE', #227 ) ;
#161 = EDGE_LOOP ( 'NONE', ( #17, #84, #55, #24 ) ) ;
#162 = DIRECTION ( 'NONE',  ( 1.000000000000000000, 0.000000000000000000, 0.000000000000000000 ) ) ;
#163 = CARTESIAN_POINT ( 'NONE',  ( 0.000000000000000000, 0.000000000000000000, 2.599999999999999201 ) ) ;
#164 = DIRECTION ( 'NONE',  ( 1.000000000000000000, 0.000000000000000000, 0.000000000000000000 ) ) ;
#165 = DIRECTION ( 'NONE',  ( -1.000000000000000000, 0.000000000000000000, 0.000000000000000000 ) ) ;
#166 = EDGE_LOOP ( 'NONE', ( #256, #252, #133, #191 ) ) ;
#167 = PERSON_AND_ORGANIZATION_ROLE ( 'creator' ) ;
#168 = ORIENTED_EDGE ( 'NONE', *, *, #250, .T. ) ;
#169 = DIRECTION ( 'NONE',  ( 1.000000000000000000, 0.000000000000000000, 0.000000000000000000 ) ) ;
#170 = VECTOR ( 'NONE', #231, 1000.000000000000000 ) ;
#171 =( LENGTH_UNIT ( ) NAMED_UNIT ( * ) SI_UNIT ( .MILLI., .METRE. ) );
#172 = DIRECTION ( 'NONE',  ( -0.4472135954999585938, 0.000000000000000000, -0.8944271909999155223 ) ) ;
#173 = PERSON_AND_ORGANIZATION ( #295, #81 ) ;
#174 = ADVANCED_FACE ( 'NONE', ( #225, #49 ), #235, .F. ) ;
#175 = APPROVAL_ROLE ( '' ) ;
#176 = VECTOR ( 'NONE', #157, 1000.000000000000000 ) ;
#177 = CARTESIAN_POINT ( 'NONE',  ( 0.000000000000000000, 0.000000000000000000, 2.599999999999999201 ) ) ;
#178 = COORDINATED_UNIVERSAL_TIME_OFFSET ( 1, 0, .AHEAD. ) ;
#179 = DIRECTION ( 'NONE',  ( 1.000000000000000000, 0.000000000000000000, 0.000000000000000000 ) ) ;
#180 = AXIS2_PLACEMENT_3D ( 'NONE', #281, #66, #97 ) ;
#181 = DIRECTION ( 'NONE',  ( -0.000000000000000000, -0.000000000000000000, 1.000000000000000000 ) ) ;
#182 = VERTEX_POINT ( 'NONE', #23 ) ;
#183 = DIRECTION ( 'NONE',  ( -0.000000000000000000, -0.000000000000000000, 1.000000000000000000 ) ) ;
#184 = DIRECTION ( 'NONE',  ( -0.000000000000000000, -0.000000000000000000, 1.000000000000000000 ) ) ;
#185 = FACE_OUTER_BOUND ( 'NONE', #142, .T. ) ;
#186 = VECTOR ( 'NONE', #211, 1000.000000000000000 ) ;
#187 = CC_DESIGN_DATE_AND_TIME_ASSIGNMENT ( #7, #106, ( #34 ) ) ;
#188 = DIRECTION ( 'NONE',  ( 0.000000000000000000, 0.000000000000000000, -1.000000000000000000 ) ) ;
#189 = EDGE_CURVE ( 'NONE', #14, #64, #122, .T. ) ;
#190 =( NAMED_UNIT ( * ) PLANE_ANGLE_UNIT ( ) SI_UNIT ( $, .RADIAN. ) );
#191 = ORIENTED_EDGE ( 'NONE', *, *, #250, .F. ) ;
#192 = CIRCLE ( 'NONE', #148, 16.75000000000000000 ) ;
#193 = VERTEX_POINT ( 'NONE', #51 ) ;
#194 = AXIS2_PLACEMENT_3D ( 'NONE', #210, #5, #249 ) ;
#195 = ADVANCED_FACE ( 'NONE', ( #140 ), #31, .T. ) ;
#196 = ADVANCED_FACE ( 'NONE', ( #75, #203 ), #299, .F. ) ;
#197 = PERSON_AND_ORGANIZATION ( #295, #81 ) ;
#198 = PERSON_AND_ORGANIZATION_ROLE ( 'design_supplier' ) ;
#199 = AXIS2_PLACEMENT_3D ( 'NONE', #177, #253, #138 ) ;
#200 = CARTESIAN_POINT ( 'NONE',  ( 16.75000000000000000, 2.051283388571816887E-15, 1.600000000000000089 ) ) ;
#201 = CARTESIAN_POINT ( 'NONE',  ( 0.000000000000000000, 0.000000000000000000, 0.000000000000000000 ) ) ;
#202 = DATE_AND_TIME ( #22, #248 ) ;
#203 = FACE_BOUND ( 'NONE', #215, .T. ) ;
#204 = AXIS2_PLACEMENT_3D ( 'NONE', #111, #37, #290 ) ;
#205 = DIRECTION ( 'NONE',  ( -0.000000000000000000, -0.000000000000000000, 1.000000000000000000 ) ) ;
#206 = EDGE_CURVE ( 'NONE', #246, #74, #282, .T. ) ;
#207 = ORIENTED_EDGE ( 'NONE', *, *, #240, .T. ) ;
#208 = EDGE_CURVE ( 'NONE', #228, #69, #112, .T. ) ;
#209 = LINE ( 'NONE', #83, #46 ) ;
#210 = CARTESIAN_POINT ( 'NONE',  ( 0.000000000000000000, 16.75000000000000000, -4.336808689942017736E-16 ) ) ;
#211 = DIRECTION ( 'NONE',  ( -0.000000000000000000, -0.000000000000000000, 1.000000000000000000 ) ) ;
#212 = PERSON_AND_ORGANIZATION ( #295, #81 ) ;
#213 = CIRCLE ( 'NONE', #101, 16.75000000000000000 ) ;
#214 = APPROVAL_ROLE ( '' ) ;
#215 = EDGE_LOOP ( 'NONE', ( #207, #121 ) ) ;
#216 = AXIS2_PLACEMENT_3D ( 'NONE', #130, #127, #54 ) ;
#217 = EDGE_CURVE ( 'NONE', #222, #64, #192, .T. ) ;
#218 = AXIS2_PLACEMENT_3D ( 'NONE', #134, #275, #162 ) ;
#219 = ORIENTED_EDGE ( 'NONE', *, *, #16, .F. ) ;
#220 = ORIENTED_EDGE ( 'NONE', *, *, #298, .F. ) ;
#221 = APPROVAL_DATE_TIME ( #20, #104 ) ;
#222 = VERTEX_POINT ( 'NONE', #200 ) ;
#223 = APPROVAL_STATUS ( 'not_yet_approved' ) ;
#224 = AXIS2_PLACEMENT_3D ( 'NONE', #21, #139, #68 ) ;
#225 = FACE_BOUND ( 'NONE', #158, .T. ) ;
#226 = SECURITY_CLASSIFICATION_LEVEL ( 'unclassified' ) ;
#227 = CARTESIAN_POINT ( 'NONE',  ( 16.75000000000000000, 0.000000000000000000, 0.000000000000000000 ) ) ;
#228 = VERTEX_POINT ( 'NONE', #296 ) ;
#229 = CC_DESIGN_PERSON_AND_ORGANIZATION_ASSIGNMENT ( #152, #294, ( #35 ) ) ;
#230 = EDGE_CURVE ( 'NONE', #14, #160, #213, .T. ) ;
#231 = DIRECTION ( 'NONE',  ( 0.4472135954999585938, 5.476786982642034256E-17, -0.8944271909999155223 ) ) ;
#232 = LOCAL_TIME ( 14, 47, 57.00000000000000000, #108 ) ;
#233 = APPLICATION_CONTEXT ( 'configuration controlled 3d designs of mechanical parts and assemblies' ) ;
#234 = CARTESIAN_POINT ( 'NONE',  ( -16.75000000000000000, 2.051283388571816887E-15, 2.729999999999999094 ) ) ;
#235 = PLANE ( 'NONE',  #224 ) ;
#236 = APPLICATION_PROTOCOL_DEFINITION ( 'international standard', 'config_control_design', 1994, #233 ) ;
#237 = CIRCLE ( 'NONE', #218, 16.25000000000000000 ) ;
#238 = DIRECTION ( 'NONE',  ( -0.000000000000000000, -0.000000000000000000, 1.000000000000000000 ) ) ;
#239 = VECTOR ( 'NONE', #205, 1000.000000000000000 ) ;
#240 = EDGE_CURVE ( 'NONE', #69, #228, #19, .T. ) ;
#241 = CALENDAR_DATE ( 2022, 12, 2 ) ;
#242 = APPROVAL_PERSON_ORGANIZATION ( #82, #144, #214 ) ;
#243 = ORIENTED_EDGE ( 'NONE', *, *, #261, .F. ) ;
#244 = COORDINATED_UNIVERSAL_TIME_OFFSET ( 1, 0, .AHEAD. ) ;
#245 = CARTESIAN_POINT ( 'NONE',  ( -9.999999999999998224, 1.224646799147353059E-15, 2.599999999999999201 ) ) ;
#246 = VERTEX_POINT ( 'NONE', #146 ) ;
#247 = VECTOR ( 'NONE', #40, 1000.000000000000000 ) ;
#248 = LOCAL_TIME ( 14, 47, 57.00000000000000000, #178 ) ;
#249 = DIRECTION ( 'NONE',  ( 1.000000000000000000, 0.000000000000000000, 0.000000000000000000 ) ) ;
#250 = EDGE_CURVE ( 'NONE', #64, #222, #50, .T. ) ;
#251 = CYLINDRICAL_SURFACE ( 'NONE', #27, 16.75000000000000000 ) ;
#252 = ORIENTED_EDGE ( 'NONE', *, *, #230, .T. ) ;
#253 = DIRECTION ( 'NONE',  ( -0.000000000000000000, -0.000000000000000000, 1.000000000000000000 ) ) ;
#254 = CARTESIAN_POINT ( 'NONE',  ( 0.000000000000000000, 0.000000000000000000, 1.600000000000000089 ) ) ;
#255 = PRODUCT ( 'SP_centering_ring_v0_1', 'SP_centering_ring_v0_1', '', ( #107 ) ) ;
#256 = ORIENTED_EDGE ( 'NONE', *, *, #189, .F. ) ;
#257 = CARTESIAN_POINT ( 'NONE',  ( 0.000000000000000000, 0.000000000000000000, 1.600000000000000089 ) ) ;
#258 = EDGE_LOOP ( 'NONE', ( #88, #284, #115, #243 ) ) ;
#259 = DIRECTION ( 'NONE',  ( -0.000000000000000000, -0.000000000000000000, 1.000000000000000000 ) ) ;
#260 = AXIS2_PLACEMENT_3D ( 'NONE', #78, #238, #266 ) ;
#261 = EDGE_CURVE ( 'NONE', #160, #222, #52, .T. ) ;
#262 = CARTESIAN_POINT ( 'NONE',  ( 16.75000000000000000, 0.000000000000000000, 2.729999999999999094 ) ) ;
#263 = CARTESIAN_POINT ( 'NONE',  ( -16.75000000000000000, 2.051283388571816887E-15, 0.000000000000000000 ) ) ;
#264 = AXIS2_PLACEMENT_3D ( 'NONE', #257, #188, #165 ) ;
#265 = ORIENTED_EDGE ( 'NONE', *, *, #89, .T. ) ;
#266 = DIRECTION ( 'NONE',  ( 1.000000000000000000, 0.000000000000000000, 0.000000000000000000 ) ) ;
#267 = AXIS2_PLACEMENT_3D ( 'NONE', #119, #183, #73 ) ;
#268 = ORIENTED_EDGE ( 'NONE', *, *, #117, .T. ) ;
#269 = CC_DESIGN_SECURITY_CLASSIFICATION ( #86, ( #35 ) ) ;
#270 = MANIFOLD_SOLID_BREP ( 'Revolve1', #67 ) ;
#271 = LINE ( 'NONE', #45, #239 ) ;
#272 = ORIENTED_EDGE ( 'NONE', *, *, #206, .F. ) ;
#273 = APPROVAL_DATE_TIME ( #202, #128 ) ;
#274 = DESIGN_CONTEXT ( 'detailed design', #90, 'design' ) ;
#275 = DIRECTION ( 'NONE',  ( -0.000000000000000000, -0.000000000000000000, 1.000000000000000000 ) ) ;
#276 = DATE_TIME_ROLE ( 'classification_date' ) ;
#277 = CIRCLE ( 'NONE', #260, 16.75000000000000000 ) ;
#278 = CARTESIAN_POINT ( 'NONE',  ( 0.000000000000000000, 0.000000000000000000, 2.729999999999999094 ) ) ;
#279 = CYLINDRICAL_SURFACE ( 'NONE', #131, 9.999999999999998224 ) ;
#280 = EDGE_LOOP ( 'NONE', ( #220, #289 ) ) ;
#281 = CARTESIAN_POINT ( 'NONE',  ( 0.000000000000000000, 0.000000000000000000, 1.600000000000000089 ) ) ;
#282 = CIRCLE ( 'NONE', #125, 9.999999999999998224 ) ;
#283 = DIRECTION ( 'NONE',  ( -0.000000000000000000, -0.000000000000000000, 1.000000000000000000 ) ) ;
#284 = ORIENTED_EDGE ( 'NONE', *, *, #189, .T. ) ;
#285 = PERSON_AND_ORGANIZATION ( #295, #81 ) ;
#286 = ADVANCED_FACE ( 'NONE', ( #53 ), #59, .T. ) ;
#287 = ADVANCED_FACE ( 'NONE', ( #185 ), #288, .F. ) ;
#288 = CYLINDRICAL_SURFACE ( 'NONE', #216, 9.999999999999998224 ) ;
#289 = ORIENTED_EDGE ( 'NONE', *, *, #230, .F. ) ;
#290 = DIRECTION ( 'NONE',  ( 1.000000000000000000, 0.000000000000000000, 0.000000000000000000 ) ) ;
#291 = EDGE_LOOP ( 'NONE', ( #72, #268, #60, #219 ) ) ;
#292 = AXIS2_PLACEMENT_3D ( 'NONE', #103, #184, #164 ) ;
#293 = APPROVAL_PERSON_ORGANIZATION ( #197, #128, #92 ) ;
#294 = PERSON_AND_ORGANIZATION_ROLE ( 'creator' ) ;
#295 = PERSON ( 'UNSPECIFIED', 'UNSPECIFIED', 'UNSPECIFIED', ('UNSPECIFIED'), ('UNSPECIFIED'), ('UNSPECIFIED') ) ;
#296 = CARTESIAN_POINT ( 'NONE',  ( -10.00000000000000000, 1.224646799147353256E-15, -8.673617379884035472E-16 ) ) ;
#297 = APPROVAL_STATUS ( 'not_yet_approved' ) ;
#298 = EDGE_CURVE ( 'NONE', #160, #14, #277, .T. ) ;
#299 = PLANE ( 'NONE',  #194 ) ;
ENDSEC;
END-ISO-10303-21;
